﻿
Pro/ENGINEER INTERFACE EXPORT LOG FILE

STEP output for Part BASE2.



Option values used for this export.

step_export_format                           AP203_IS
export_3d_force_default_naming               NO
intf3d_out_extend_surface                    YES
intf3d_out_surface_deviation                 DEFAULT
intf_out_as_bezier                           NO
intf3d_out_force_surf_normals                NO
intf_out_max_bspl_degree                     16


Process began at: Thu Sep 01 11:59:35 2016

Process finished at: Thu Sep 01 11:59:35 2016

Total process time: 00:00:00.


MODEL:   BASE2
OUTPUT FILE:  base2aa.stp

ADVANCED_BREP_SHAPE_REPRESENTATION                     1
ADVANCED_FACE                                        189
APPLICATION_CONTEXT                                    1
APPLICATION_PROTOCOL_DEFINITION                        1
APPROVAL                                               1
APPROVAL_DATE_TIME                                     1
APPROVAL_PERSON_ORGANIZATION                           1
APPROVAL_ROLE                                          1
APPROVAL_STATUS                                        1
AXIS2_PLACEMENT_3D                                   467
CALENDAR_DATE                                          1
CARTESIAN_POINT                                      972
CC_DESIGN_APPROVAL                                     1
CC_DESIGN_DATE_AND_TIME_ASSIGNMENT                     2
CC_DESIGN_PERSON_AND_ORGANIZATION_ASSIGNMENT           4
CC_DESIGN_SECURITY_CLASSIFICATION                      1
CIRCLE                                               278
CLOSED_SHELL                                           1
CONICAL_SURFACE                                        6
CONVERSION_BASED_UNIT                                  1
COORDINATED_UNIVERSAL_TIME_OFFSET                      1
CYLINDRICAL_SURFACE                                  136
DATE_AND_TIME                                          1
DATE_TIME_ROLE                                         2
DESIGN_CONTEXT                                         1
DIMENSIONAL_EXPONENTS                                  1
DIRECTION                                           1127
EDGE_CURVE                                           471
EDGE_LOOP                                            275
FACE_BOUND                                            86
FACE_OUTER_BOUND                                     189
FILE_DESCRIPTION                                       1
FILE_NAME                                              1
FILE_SCHEMA                                            1
GEOMETRIC_REPRESENTATION_CONTEXT                       1
GLOBAL_UNCERTAINTY_ASSIGNED_CONTEXT                    1
GLOBAL_UNIT_ASSIGNED_CONTEXT                           1
LENGTH_UNIT                                            1
LINE                                                 193
LOCAL_TIME                                             1
MANIFOLD_SOLID_BREP                                    1
MECHANICAL_CONTEXT                                     1
NAMED_UNIT                                             4
ORGANIZATION                                           1
ORIENTED_EDGE                                        942
PERSON                                                 1
PERSON_AND_ORGANIZATION                                1
PERSON_AND_ORGANIZATION_ROLE                           4
PLANE                                                 47
PLANE_ANGLE_MEASURE_WITH_UNIT                          1
PLANE_ANGLE_UNIT                                       2
PRODUCT                                                1
PRODUCT_CATEGORY                                       1
PRODUCT_CATEGORY_RELATIONSHIP                          1
PRODUCT_DEFINITION                                     1
PRODUCT_DEFINITION_FORMATION_WITH_SPECIFIED_SOURCE     1
PRODUCT_DEFINITION_SHAPE                               1
PRODUCT_RELATED_PRODUCT_CATEGORY                       1
REPRESENTATION_CONTEXT                                 1
SECURITY_CLASSIFICATION                                1
SECURITY_CLASSIFICATION_LEVEL                          1
SHAPE_DEFINITION_REPRESENTATION                        1
SI_UNIT                                                3
SOLID_ANGLE_UNIT                                       1
UNCERTAINTY_MEASURE_WITH_UNIT                          1
VECTOR                                               193
VERTEX_POINT                                         312

TOTAL                                               5948

