Connection restored with License Server(s)  1
Connection restored with License Server(s)  2
Connection restored with License Server(s)  1
Connection restored with License Server(s)  3
Connection restored with License Server(s)  2
